Data Wrangling
…
neighborhoods.df <- read.csv("https://raw.githubusercontent.com/geo200cn/data/master/week2data.csv")

The object neighborhoods.df is a regular data frame. The
first difference between regular data frames and tibbles is how the
dataset “looks.” First, the tibble.

neighborhoods

## # A tibble: 7,937 × 7
##         GEOID NAME            hisp nhasn nhblk nhwhite tpopr
##         <dbl> <chr>          <dbl> <dbl> <dbl>   <dbl> <dbl>
##  1 6019001100 Fresno          2033    24   552      81  2760
##  2 6071001600 San Bernardino  5325    11    18      94  5527
##  3 6019000200 Fresno          1935   317   416     153  2870
##  4 6077000801 San Joaquin     4977  1083   400     389  7352
##  5 6019001500 Fresno          1868    36    25     541  2475
##  6 6037204920 Los Angeles     2544     0    27      68  2639
##  7 6077000300 San Joaquin     1216   307   401     291  2240
##  8 6019001000 Fresno          2524   693   842      93  4231
##  9 6037206050 Los Angeles     1550   183   112     127  2010
## 10 6019000400 Fresno          4770   633   106     422  5958
## # ℹ 7,927 more rows
…
Let’s keep County, GEOID, and hisp,
nhwhite, nhblk and tpopr from the
neighborhoods dataset.

select(neighborhoods, County, GEOID, hisp, nhwhite, nhblk, tpopr)

## # A tibble: 7,937 × 6
##    County              GEOID  hisp nhwhite nhblk tpopr
##    <chr>               <dbl> <dbl>   <dbl> <dbl> <dbl>
##  1 Fresno         6019001100  2033      81   552  2760
##  2 San Bernardino 6071001600  5325      94    18  5527
##  3 Fresno         6019000200  1935     153   416  2870
##  4 San Joaquin    6077000801  4977     389   400  7352
##  5 Fresno         6019001500  1868     541    25  2475
##  6 Los Angeles    6037204920  2544      68    27  2639
##  7 San Joaquin    6077000300  1216     291   401  2240
##  8 Fresno         6019001000  2524      93   842  4231
##  9 Los Angeles    6037206050  1550     127   112  2010
## 10 Fresno         6019000400  4770     422   106  5958
## # ℹ 7,927 more rows
…
select(neighces, GEOID, PM2.5)

## Error in select(neighces, GEOID, PM2.5): unused arguments (GEOID, PM2.5)

What in the world just happened? By loading MASS, we
have overwritten tidyverse’s select()
function (hence the warning when you loaded MASS). R
will choose the function from the package that was most recently loaded.
The normal workaround is to be explicit about which
select() function you want by using
dplyr::select() as in

dplyr::select(neighces, GEOID, PM2.5)

## # A tibble: 7,937 × 2
##         GEOID PM2.5
##         <dbl> <dbl>
##  1 6019001100  15.4
##  2 6071001600  13.3
##  3 6019000200  15.4
##  4 6077000801  12.5
##  5 6019001500  15.4
##  6 6037204920  12.9
##  7 6077000300  13.4
##  8 6019001000  15.4
##  9 6037206050  12.9
## 10 6019000400  15.4
## # ℹ 7,927 more rows
…
