Exploratory Data Analysis
…
## # A tibble: 2 × 2
##   mhisp         Mean
##   <chr>        <dbl>
## 1 Majority     11.6 
## 2 Not Majority  9.82

You can also find the mean PM2.5 levels by county using the same
code.

neighces %>%
  group_by(County) %>%
  summarize(Mean = mean(PM2.5)) 

## # A tibble: 58 × 2
##    County        Mean
##    <chr>        <dbl>
##  1 Alameda       8.78
##  2 Alpine        2.59
##  3 Amador        6.65
##  4 Butte         9.05
##  5 Calaveras     6.26
##  6 Colusa        7.24
##  7 Contra Costa  8.01
##  8 Del Norte     3.80
##  9 El Dorado     6.78
## 10 Fresno       15.2 
## # ℹ 48 more rows
…
