…
```r
counties.df <- read.csv("https://raw.githubusercontent.com/geo200cn/data/master/week2data.csv")
```


The object *counties.df* is a regular data frame. The first difference between regular data frames and tibbles is how the dataset "looks."  First, the tibble.


```r
counties
```

```
## # A tibble: 290 x 4
##    GEOID NAME                       variable estimate
##    <chr> <chr>                      <chr>       <dbl>
##  1 06001 Alameda County, California tpopr     1629615
##  2 06001 Alameda County, California nhwhite    524881
##  3 06001 Alameda County, California nhblk      175063
##  4 06001 Alameda County, California nhasn      468356
##  5 06001 Alameda County, California hisp       367041
##  6 06003 Alpine County, California  tpopr        1203
##  7 06003 Alpine County, California  nhwhite       777
##  8 06003 Alpine County, California  nhblk          18
##  9 06003 Alpine County, California  nhasn           8
## 10 06003 Alpine County, California  hisp          117
## # … with 280 more rows
```
…
Tidying up a dataset for your specific data project means following three basic rules: (1) Each variable must have its own column, (2) each observation must have its own row, and (3) each value must have its own cell. The dataset *counties* is not tidy for the purposes of this lab as counties are not the unit of observations.

We'll need to "spread" or reshape the dataset to get it to the form we want. Right now, the data is in long form (county by variable as rows) and needs to be converted to wide form (counties as rows).

A wide-form version will have variables (*tpopr*, *nhwhite*, *nhblk*, *nhasn*, and *hisp*), one for each county. So in this case, the value that you want to spread is the *estimate* variable, and the key that you want to spread/group by is the *variable* variable.  To go from long to wide in tidy r, you use the function `spread()`


```r
counties <- spread(counties, key = variable, value = estimate)
counties
```

```
## # A tibble: 58 x 7
##    GEOID NAME                              hisp  nhasn  nhblk nhwhite   tpopr
##    <chr> <chr>                            <dbl>  <dbl>  <dbl>   <dbl>   <dbl>
##  1 06001 Alameda County, California      367041 468356 175063  524881 1629615
##  2 06003 Alpine County, California          117      8     18     777    1203
##  3 06005 Amador County, California         4943    565    764   29571   37306
##  4 06007 Butte County, California         35445   9852   3282  164184  225207
##  5 06009 Calaveras County, California      5166    527    258   36932   45057
##  6 06011 Colusa County, California        12539    328    186    7800   21479
##  7 06013 Contra Costa County, California 284003 177544  93140  504818 1123678
##  8 06015 Del Norte County, California      5281    741    484   17233   27442
##  9 06017 El Dorado County, California     23279   7805   1614  145153  185015
## 10 06019 Fresno County, California       509442  96128  45217  293677  971616
## # … with 48 more rows
```
…
```
## Error in select(counties, GEOID, NAME, tpopr): unused arguments (GEOID, NAME, tpopr)
```

What in the world just happened? By loading **MASS**, we have overwritten dplyr’s `select()` function (hence the warning when you loaded **MASS**). R will choose the function from the package that was most recently loaded. The normal workaround is to be explicit about which `select()` function you want by using `dplyr::select()` as in


```r
dplyr::select(counties, GEOID, NAME, tpopr)
```

```
## # A tibble: 58 x 3
##    GEOID NAME                              tpopr
##    <chr> <chr>                             <dbl>
##  1 06001 Alameda County, California      1629615
##  2 06003 Alpine County, California          1203
##  3 06005 Amador County, California         37306
##  4 06007 Butte County, California         225207
##  5 06009 Calaveras County, California      45057
##  6 06011 Colusa County, California         21479
##  7 06013 Contra Costa County, California 1123678
##  8 06015 Del Norte County, California      27442
##  9 06017 El Dorado County, California     185015
## 10 06019 Fresno County, California        971616
## # … with 48 more rows
```
…
```
## [conflicted] Will prefer dplyr::select over any other package
```

The above code tells R that the function `select` will always come from the package **dplyr**.  Now use `select()` without the `dplyr::`


```r
select(counties, GEOID, NAME, tpopr)
```

```
## # A tibble: 58 x 3
##    GEOID NAME                              tpopr
##    <chr> <chr>                             <dbl>
##  1 06001 Alameda County, California      1629615
##  2 06003 Alpine County, California          1203
##  3 06005 Amador County, California         37306
##  4 06007 Butte County, California         225207
##  5 06009 Calaveras County, California      45057
##  6 06011 Colusa County, California         21479
##  7 06013 Contra Costa County, California 1123678
##  8 06015 Del Norte County, California      27442
##  9 06017 El Dorado County, California     185015
## 10 06019 Fresno County, California        971616
## # … with 48 more rows
```
…
